%YAML 1.1
%TAG !u! tag:unity3d.com,2011:
--- !u!1001 &8019661013519924596
PrefabInstance:
  m_ObjectHideFlags: 0
  serializedVersion: 2
  m_Modification:
    m_TransformParent: {fileID: 0}
    m_Modifications:
    - target: {fileID: 63501722236956628, guid: d506d39b8c465a541aeeb1f9a71ce457,
        type: 3}
      propertyPath: m_LocalPosition.x
      value: 0
      objectReference: {fileID: 0}
    - target: {fileID: 63501722236956628, guid: d506d39b8c465a541aeeb1f9a71ce457,
        type: 3}
      propertyPath: m_LocalPosition.y
      value: 10
      objectReference: {fileID: 0}
    - target: {fileID: 63501722236956628, guid: d506d39b8c465a541aeeb1f9a71ce457,
        type: 3}
      propertyPath: m_LocalPosition.z
      value: 0
      objectReference: {fileID: 0}
    - target: {fileID: 63501722236956628, guid: d506d39b8c465a541aeeb1f9a71ce457,
        type: 3}
      propertyPath: m_LocalRotation.x
      value: 0
      objectReference: {fileID: 0}
    - target: {fileID: 63501722236956628, guid: d506d39b8c465a541aeeb1f9a71ce457,
        type: 3}
      propertyPath: m_LocalRotation.y
      value: 0
      objectReference: {fileID: 0}
    - target: {fileID: 63501722236956628, guid: d506d39b8c465a541aeeb1f9a71ce457,
        type: 3}
      propertyPath: m_LocalRotation.z
      value: 0
      objectReference: {fileID: 0}
    - target: {fileID: 63501722236956628, guid: d506d39b8c465a541aeeb1f9a71ce457,
        type: 3}
      propertyPath: m_LocalRotation.w
      value: 1
      objectReference: {fileID: 0}
    - target: {fileID: 63501722236956628, guid: d506d39b8c465a541aeeb1f9a71ce457,
        type: 3}
      propertyPath: m_RootOrder
      value: 0
      objectReference: {fileID: 0}
    - target: {fileID: 63501722236956628, guid: d506d39b8c465a541aeeb1f9a71ce457,
        type: 3}
      propertyPath: m_LocalEulerAnglesHint.x
      value: 0
      objectReference: {fileID: 0}
    - target: {fileID: 63501722236956628, guid: d506d39b8c465a541aeeb1f9a71ce457,
        type: 3}
      propertyPath: m_LocalEulerAnglesHint.y
      value: 0
      objectReference: {fileID: 0}
    - target: {fileID: 63501722236956628, guid: d506d39b8c465a541aeeb1f9a71ce457,
        type: 3}
      propertyPath: m_LocalEulerAnglesHint.z
      value: 0
      objectReference: {fileID: 0}
    - target: {fileID: 951605109265875734, guid: d506d39b8c465a541aeeb1f9a71ce457,
        type: 3}
      propertyPath: m_Sprite
      value: 
      objectReference: {fileID: 21300000, guid: 111db34bba69fa8449d6ef3c786350ac,
        type: 3}
    - target: {fileID: 980028118391700581, guid: d506d39b8c465a541aeeb1f9a71ce457,
        type: 3}
      propertyPath: m_Name
      value: Lata-azul
      objectReference: {fileID: 0}
    m_RemovedComponents: []
  m_SourcePrefab: {fileID: 100100000, guid: d506d39b8c465a541aeeb1f9a71ce457, type: 3}
